<?xml version="1.0" encoding="UTF-8"?>
<svg id="Layer_2" data-name="Layer 2" xmlns="http://www.w3.org/2000/svg" xmlns:xlink="http://www.w3.org/1999/xlink" viewBox="0 0 5000 2028.06">
  <defs>
    <style>
      .cls-1 {
        fill: #0d204a;
      }

      .cls-2 {
        fill: url(#Simply_Staking);
      }
    </style>
    <linearGradient id="Simply_Staking" data-name="Simply Staking" x1="1541.21" y1="1701.31" x2="166.65" y2="326.75" gradientUnits="userSpaceOnUse">
      <stop offset="0" stop-color="#f99f38"/>
      <stop offset="1" stop-color="#f23d4c"/>
    </linearGradient>
  </defs>
  <g id="Layer_1-2" data-name="Layer 1">
    <g>
      <path class="cls-2" d="m0,1516.44c0,15.73,8.39,30.26,22.01,38.12l809.89,467.59c13.62,7.86,30.4,7.86,44.02,0l809.93-467.61c13.62-7.86,22.01-22.4,22.01-38.13v-477.04c0-15.73-8.39-30.26-22.01-38.12l-222.88-128.7,244.88-141.38v-219.56c0-15.73-8.39-30.26-22.01-38.13L875.96,5.9c-13.62-7.86-30.4-7.86-44.02,0L22.01,473.51C8.39,481.37,0,495.91,0,511.63v477.04c0,15.73,8.39,30.26,22.01,38.12l222.88,128.7L0,1296.88v219.56Zm831.87-21.98c13.62,7.87,30.41,7.87,44.03,0l190.14-109.8v-282.94s-190.14,109.78-190.14,109.78c-13.62,7.86-30.4,7.86-44.02,0l-564.9-326.14c-13.62-7.86-22.01-22.4-22.01-38.13v-194.14c0-15.73,8.39-30.26,22.01-38.13l564.96-326.18c13.62-7.86,30.41-7.86,44.03,0l564.84,326.18c13.62,7.86,22.01,22.4,22.01,38.12v219.36s-586.81-338.86-586.81-338.86c-13.62-7.87-30.41-7.87-44.03,0l-190.14,109.8v282.94s190.14-109.78,190.14-109.78c13.62-7.86,30.4-7.86,44.02,0l564.9,326.14c13.62,7.86,22.01,22.4,22.01,38.13v194.14c0,15.73-8.39,30.26-22.01,38.13l-564.96,326.18c-13.62,7.86-30.41,7.86-44.03,0l-564.84-326.18c-13.62-7.87-22.01-22.4-22.01-38.12v-219.36s586.81,338.86,586.81,338.86Z"/>
      <g>
        <path class="cls-1" d="m1990.12,687.06h105.69c.83,43.96,33.8,73.56,99.76,73.56s99.76-29.6,99.76-73.56c0-48.19-51.57-57.49-111.61-68.48-83.69-15.22-182.6-32.98-182.6-161.49,0-102.29,77.77-174.16,195.3-174.16s191.08,68.48,195.3,169.93h-102.3c-.83-42.27-32.12-72.71-92.16-72.71s-91.3,32.97-91.3,73.55c0,48.19,51.58,57.49,111.61,68.48,83.69,15.22,183.46,32.97,183.46,161.48,0,107.37-82.02,174.17-205.45,174.17s-202.91-65.1-205.45-170.78Z"/>
        <path class="cls-1" d="m2469.52,308.3c0-38.89,27.89-67.64,66.77-67.64s66.8,28.75,66.8,67.64-27.9,66.8-66.8,66.8-66.77-27.9-66.77-66.8Zm16.05,120.9h100.61v417.65h-100.61v-417.65Z"/>
        <path class="cls-1" d="m2683.42,608.43c0-131.04,76.08-190.22,174.99-190.22,62.58,0,114.13,26.21,144.58,75.24,29.58-49.03,81.16-75.24,144.58-75.24,98.91,0,175.01,59.18,175.01,190.22v238.42h-100.62v-238.42c0-68.48-35.5-96.38-84.52-96.38s-83.72,28.74-83.72,96.38v238.42h-100.61v-238.42c0-67.64-36.35-96.38-84.54-96.38s-84.54,27.9-84.54,96.38v238.42h-100.61v-238.42Z"/>
        <path class="cls-1" d="m3405.45,641.41c0-135.27,91.32-223.2,222.35-223.2s225.74,91.31,225.74,224.04c0,142.88-106.52,215.59-207.98,215.59-60.04,0-109.91-25.37-139.51-71.86v239.26h-100.61v-383.83Zm346.64-3.38c0-73.55-49.87-125.97-123.43-125.97s-122.61,52.42-122.61,125.97,49.05,125.97,122.61,125.97,123.43-52.41,123.43-125.97Z"/>
        <path class="cls-1" d="m3933.87,246.59h100.61v600.27h-100.61V246.59Z"/>
        <path class="cls-1" d="m4135.1,892.51h100.61c16.9,38.89,49.87,56.65,100.61,56.65,68.48,0,107.37-32.97,107.37-114.13v-52.42c-25.36,45.66-69.33,70.17-124.27,70.17-96.38,0-187.69-62.56-187.69-211.36v-212.21h100.61v212.21c0,79.47,42.28,117.52,105.68,117.52s105.68-39.73,105.68-117.52v-212.21h100.61v403.27c0,145.42-92.15,203.76-207.98,203.76-97.23,0-177.53-44.81-201.21-143.73Z"/>
        <g>
          <path class="cls-1" d="m1990.1,1574.35h105.69c.83,43.96,33.8,73.55,99.76,73.55s99.76-29.6,99.76-73.55c0-48.19-51.57-57.5-111.61-68.48-83.69-15.22-182.6-32.97-182.6-161.48,0-102.3,77.77-174.17,195.3-174.17s191.08,68.48,195.3,169.94h-102.3c-.83-42.28-32.12-72.71-92.16-72.71s-91.3,32.97-91.3,73.55c0,48.19,51.58,57.5,111.61,68.48,83.69,15.22,183.46,32.97,183.46,161.48,0,107.37-82.02,174.16-205.45,174.16s-202.91-65.09-205.45-170.77Z"/>
          <path class="cls-1" d="m2471.19,1573.5v-404.98h100.61v147.97h215.57v91.3h-215.57v165.72c0,55.8,28.75,77.77,70.16,77.77s70.16-21.14,70.16-77.77v-11h100.62v11c0,115.83-69.33,171.62-170.78,171.62s-170.77-55.79-170.77-171.62Z"/>
          <path class="cls-1" d="m2860.12,1529.53c0-132.73,93-224.05,225.73-224.05s222.35,88.77,222.35,223.2v205.45h-92.15v-82.01c-25.36,61.72-82.01,93-147.97,93-101.44,0-207.96-72.71-207.96-215.59Zm347.47-4.22c0-73.55-49.04-125.97-122.59-125.97s-123.44,52.41-123.44,125.97,49.89,125.97,123.44,125.97,122.59-52.41,122.59-125.97Z"/>
          <path class="cls-1" d="m3405.43,1133.86h100.62v365.23l165.7-182.62h128.52l-196.16,204.6,203.77,213.05h-131.05l-170.78-188.53v188.53h-100.62v-600.27Z"/>
          <path class="cls-1" d="m3859.47,1195.58c0-38.9,27.9-67.65,66.8-67.65s66.77,28.75,66.77,67.65-27.89,66.79-66.77,66.79-66.8-27.9-66.8-66.79Zm16.05,120.9h100.62v417.65h-100.62v-417.65Z"/>
          <path class="cls-1" d="m4073.37,1516.85c0-139.49,82.86-211.37,206.3-211.37s206.28,71.02,206.28,211.37v217.28h-100.62v-217.28c0-79.47-42.26-117.51-105.66-117.51s-105.69,38.04-105.69,117.51v217.28h-100.61v-217.28Z"/>
          <path class="cls-1" d="m4566.3,1779.78h101.44c16.92,38.9,57.5,56.65,110.77,56.65,74.39,0,120.88-34.67,120.88-131.9v-36.35c-28.75,46.5-78.62,71.86-141.19,71.86-99.76,0-206.28-66.79-206.28-214.74,0-126.81,93-219.82,224.89-219.82s223.18,87.93,223.18,223.2v172.48c0,159.78-98.91,222.35-221.49,222.35-104,0-186.01-44.8-212.21-143.73Zm333.1-254.48c0-73.55-49.03-125.97-122.58-125.97s-123.44,52.41-123.44,125.97,49.89,120.9,123.44,120.9,122.58-47.35,122.58-120.9Z"/>
        </g>
      </g>
    </g>
  </g>
</svg>